{
    "antifeatures": {
        "Ads": "该应用包含广告",
        "DisabledAlgorithm": "该应用的安全签名较弱",
        "KnownVuln": "该应用包含已知的安全漏洞",
        "NoSourceSince": "源代码不再可用，无法更新",
        "NonFreeAdd": "该应用推广非自由插件",
        "NonFreeAssets": "该应用包含非自由组件",
        "NonFreeDep": "该应用依赖于其它非自由应用",
        "NonFreeNet": "该应用推广非自由网络服务",
        "Tracking": "此应用跟踪并报告您的行为",
        "UpstreamNonFree": "上游源代码不是完全自由的"
    },
    "index": {
        "download_fdroid": "下载 F-Droid",
        "gpg_signature": "PGP 签名",
        "introduction": "F-Droid 是一个 Android 平台上 FOSS（Free and Open Source Software，自由开源软件）应用程序的目录，并提供下载安装支持。使用客户端可以更轻松地浏览、安装及跟进您设备上的应用更新。",
        "screenshot": "F-Droid Android 应用截图",
        "title": "F-Droid 是什么？"
    },
    "navigation": {
        "about": "关于",
        "browse": "浏览",
        "contribute": "贡献",
        "documentation": "文档",
        "forum": "论坛",
        "issues": "反馈",
        "news": "新闻"
    },
    "package": {
        "anti_features": "负特性",
        "anti_features_warning": "此应用有一些您未必喜欢的功能。",
        "author": "作者",
        "build_metadata": "编译信息",
        "changelog": "更新日志",
        "donate": "捐赠",
        "download": "下载 [file_extension]",
        "flattr": "Flattr",
        "gpg_signature": "PGP 签名",
        "issue_tracker": "问题跟踪系统",
        "liberapay": "Liberapay",
        "license": "开源协议",
        "minimum_android_version": "该版本需要 Android [android_version] 及以上版本的 Android 系统。",
        "new_in_version": "新版本 [latest_version]",
        "packages": "安装包",
        "permissions": "权限",
        "signed_by_developer": "此安装包由原开发者编译并签名。",
        "signed_by_fdroid": "此安装包由 F-Droid 编译并签名，且保证与此 <a href=\"[source_code_url]\">源代码 tarball</a> 保持一致。",
        "source_code": "源代码",
        "suggest_downloading_via_fdroid": "虽然我们提供 APK 文件的下载链接，但直接下载安装的话，你不会收到更新通知，而且这不是最安全的下载方式。我们推荐您安装 F-Droid 客户端并使用它来下载安装应用程序。",
        "technical_info": "技术信息",
        "translation": "翻译",
        "version_info": "<b>版本 [package_version]</b> ([package_version_code]) - 添加于 [package_added_date]",
        "website": "网站"
    },
    "permissions": {
        "permdesc_acceptHandovers": "允许该应用继续进行在其他应用中发起的通话。",
        "permdesc_accessCoarseLocation": "该应用可根据网络来源（例如基站和 Wi-Fi 网络）获取您的位置信息。您的手机必须支持并开启这些位置信息服务，该应用才能使用这些服务。",
        "permdesc_accessDrmCertificates": "允许应用配置和使用 DRM 证书。普通应用绝不需要此权限。",
        "permdesc_accessFineLocation": "该应用可根据 GPS 或网络来源（例如基站和 Wi-Fi 网络）获取您的位置信息。您的手机必须支持并开启这些位置信息服务，该应用才能使用这些服务。这可能会增加耗电量。",
        "permdesc_accessImsCallService": "允许应用在您未执行操作的情况下使用即时通讯服务拨打电话。",
        "permdesc_accessLocationExtraCommands": "允许该应用使用其他位置信息提供程序命令。此权限使该应用可以干扰 GPS 或其他位置信息源的运作。",
        "permdesc_accessNetworkConditions": "允许该应用监听网络状况的观测信息。普通应用绝不需要此权限。",
        "permdesc_accessNetworkState": "允许该应用查看网络连接的相关信息，例如存在和连接的网络。",
        "permdesc_accessNotifications": "允许该应用检索、检查并清除通知，包括其他应用发布的通知。",
        "permdesc_accessWifiState": "允许该应用查看 Wi-Fi 网络的相关信息，例如是否启用了 Wi-Fi 以及连接的 Wi-Fi 设备的名称。",
        "permdesc_accessWimaxState": "允许该应用确定是否启用了 WiMAX 以及连接的任何 WiMAX 网络的相关信息。",
        "permdesc_access_notification_policy": "允许此应用读取和写入“勿扰”模式配置。",
        "permdesc_addVoicemail": "允许应用在您的语音信箱中留言。",
        "permdesc_answerPhoneCalls": "允许该应用接听来电。",
        "permdesc_bindCarrierMessagingService": "允许应用绑定到运营商消息传递服务的顶级接口。普通应用绝不需要此权限。",
        "permdesc_bindCarrierServices": "允许应用绑定到运营商服务。普通应用绝不需要此权限。",
        "permdesc_bindConditionProviderService": "允许应用绑定到条件提供程序服务的顶级接口。普通应用绝不需要此权限。",
        "permdesc_bindDreamService": "允许应用绑定到互动屏保服务的顶级接口。普通应用绝不需要此权限。",
        "permdesc_bindNotificationListenerService": "允许应用绑定到通知侦听器服务的顶级接口。普通应用绝不需要此权限。",
        "permdesc_bind_connection_service": "允许该应用与电话服务交互以便拨打/接听电话。",
        "permdesc_bind_incall_service": "允许该应用控制用户何时以及如何看到通话屏幕。",
        "permdesc_bluetooth": "允许该应用查看手机上的蓝牙配置，以及与配对设备建立连接或接受其连接请求。",
        "permdesc_bluetoothAdmin": "允许该应用配置本地蓝牙手机，并允许其查找远程设备且与之配对。",
        "permdesc_bodySensors": "允许该应用存取监测您身体状况的传感器所收集的数据，例如您的心率。",
        "permdesc_broadcastSticky": "允许该应用发送持久广播消息，此类消息在广播结束后仍会保留。过度使用可能会导致手机使用过多内存，从而降低其速度或稳定性。",
        "permdesc_callPhone": "允许该应用在您未执行操作的情况下拨打电话号码。此权限可能会导致意外收费或呼叫。请注意，此权限不允许该应用拨打紧急电话号码。恶意应用可通过拨打电话产生相关费用，而无需您的确认。",
        "permdesc_camera": "此应用可随时使用相机拍摄照片和录制视频。",
        "permdesc_changeNetworkState": "允许该应用更改网络连接的状态。",
        "permdesc_changeTetherState": "允许该应用更改绑定网络连接的状态。",
        "permdesc_changeWifiMulticastState": "允许该应用使用多播地址接收发送到 Wi-Fi 网络上所有设备（而不仅仅是您的手机）的数据包。该操作的耗电量比非多播模式要大。",
        "permdesc_changeWifiState": "允许该应用与 Wi-Fi 接入点建立和断开连接，以及更改 Wi-Fi 网络的设备配置。",
        "permdesc_changeWimaxState": "允许该应用建立和断开手机与 WiMAX 网络之间的连接。",
        "permdesc_connection_manager": "允许该应用管理电信网络连接。",
        "permdesc_control_incall_experience": "允许该应用向用户提供通话体验。",
        "permdesc_createNetworkSockets": "允许该应用创建网络套接字和使用自定义网络协议。浏览器和其他某些应用提供了向互联网发送数据的途径，因此应用无需该权限即可向互联网发送数据。",
        "permdesc_disableKeyguard": "允许该应用停用键锁以及任何关联的密码安全措施。例如，让手机在接听来电时停用键锁，在通话结束后重新启用键锁。",
        "permdesc_enableCarMode": "允许该应用启用车载模式。",
        "permdesc_expandStatusBar": "允许该应用展开或收起状态栏。",
        "permdesc_foregroundService": "允许该应用使用前台服务。",
        "permdesc_getAccounts": "允许该应用获取手机已知的帐号列表，其中可能包括由已安装的应用创建的所有帐号。",
        "permdesc_getPackageSize": "允许该应用检索其代码、数据和缓存大小",
        "permdesc_getTasks": "允许该应用检索近期运行的和当前正在运行的任务的相关信息。此权限可让该应用了解设备上使用了哪些应用。",
        "permdesc_handoverStatus": "允许该应用接收 Android Beam 当前传输内容的相关信息",
        "permdesc_install_shortcut": "允许该应用自行添加主屏幕快捷方式。",
        "permdesc_invokeCarrierSetup": "允许该应用调用运营商提供的配置应用。普通应用绝不需要此权限。",
        "permdesc_killBackgroundProcesses": "允许该应用结束其他应用的后台进程。此权限可导致其他应用停止运行。",
        "permdesc_manageFingerprint": "允许该应用调用方法来添加和删除可用的指纹模板。",
        "permdesc_manageNetworkPolicy": "允许该应用管理网络规范和定义专门针对应用的规则。",
        "permdesc_manageOwnCalls": "允许该应用通过系统转接来电，以改善通话体验。",
        "permdesc_manageProfileAndDeviceOwners": "允许该应用设置个人资料所有者和设备所有者。",
        "permdesc_modifyAudioSettings": "允许该应用修改全局音频设置，例如音量和用于输出的扬声器。",
        "permdesc_modifyNetworkAccounting": "允许该应用修改对于各应用的网络使用情况的统计方式。普通应用不应使用此权限。",
        "permdesc_nfc": "允许该应用与近距离无线通信 (NFC) 标签、卡和读取器通信。",
        "permdesc_persistentActivity": "允许该应用在内存中持续保留其自身的某些组件。这会限制其他应用可用的内存，从而减缓手机运行速度。",
        "permdesc_processOutgoingCalls": "允许该应用在拨出电话时查看拨打的电话号码，并选择改为拨打其他号码或完全中止通话。",
        "permdesc_readCalendar": "该应用可读取您手机上存储的所有日历活动，并分享或保存您的日历数据。",
        "permdesc_readCallLog": "该应用可读取您的通话记录。",
        "permdesc_readCellBroadcasts": "允许该应用读取您的设备收到的小区广播消息。小区广播消息是在某些地区发送的、用于发布紧急情况警告的提醒信息。恶意应用可能会在您收到小区紧急广播时干扰您设备的性能或操作。",
        "permdesc_readContacts": "允许该应用读取您手机上存储的联系人的相关数据，包括您通过打电话、发送电子邮件或以其他方式与特定个人通信的频率。此权限可让应用保存您的联系人数据，而恶意应用可能会在您不知情的情况下分享联系人数据。",
        "permdesc_readHistoryBookmarks": "允许该应用读取浏览器访问过的所有网址记录以及浏览器的所有书签。请注意：此权限可能不适用于第三方浏览器或具备网页浏览功能的其他应用。",
        "permdesc_readInstallSessions": "允许该应用读取安装会话。这样，应用将可以查看有关当前软件包安装的详情。",
        "permdesc_readNetworkUsageHistory": "允许该应用读取特定网络和应用的网络使用情况历史记录。",
        "permdesc_readPhoneNumbers": "允许该应用访问设备上的电话号码。",
        "permdesc_readPhoneState": "允许该应用访问设备的电话功能。此权限可让该应用确定本机号码和设备 ID、是否正处于通话状态以及拨打的号码。",
        "permdesc_readSms": "该应用可读取您手机上存储的所有短信。",
        "permdesc_readSyncSettings": "允许该应用读取某个帐号的同步设置。例如，此权限可确定“联系人”应用是否与某个帐号同步。",
        "permdesc_readSyncStats": "允许该应用读取某个帐号的同步统计信息，包括同步活动历史记录和同步数据量。",
        "permdesc_receiveBootCompleted": "允许该应用在系统完成引导后立即自动启动。这样可能会延长手机的启动时间，并允许应用始终运行，从而导致手机总体运行速度减慢。",
        "permdesc_receiveMms": "允许该应用接收和处理彩信。这就意味着，该应用可能会监视发送到您设备的彩信，或删除发送到您设备的彩信而不向您显示。",
        "permdesc_receiveSms": "允许该应用接收和处理短信。这就意味着，该应用可能会监视发送到您设备的短信，或删除发送到您设备的短信而不向您显示。",
        "permdesc_receiveWapPush": "允许该应用接收和处理 WAP 消息。此权限包括监视发送给您的消息或删除发送给您的消息而不向您显示的功能。",
        "permdesc_recordAudio": "该应用可随时使用麦克风进行录音。",
        "permdesc_register_call_provider": "允许该应用注册新的电信网络连接。",
        "permdesc_register_sim_subscription": "允许该应用注册新的电信 SIM 卡连接。",
        "permdesc_removeDrmCertificates": "允许该应用移除 DRM 证书。普通应用绝不需要此权限。",
        "permdesc_reorderTasks": "允许该应用将任务移动到前台和后台。该应用可能您没有任何操作的情况下执行此操作。",
        "permdesc_requestDeletePackages": "允许该应用请求删除文件包。",
        "permdesc_requestIgnoreBatteryOptimizations": "允许应用请求相应的权限，以便忽略针对该应用的电池优化。",
        "permdesc_requestInstallPackages": "允许应用请求安装文件包。",
        "permdesc_route_media_output": "允许应用将媒体输出线路更改到其他外部设备。",
        "permdesc_runInBackground": "该应用可在后台运行，这样可能会加快耗电速度。",
        "permdesc_sdcardRead": "允许该应用读取 SD 卡的内容。",
        "permdesc_sdcardWrite": "允许该应用写入 SD 卡。",
        "permdesc_sendSms": "允许该应用发送短信。此权限可能会导致意外收费。恶意应用可能会未经您的确认而发送短信，由此产生相关费用。",
        "permdesc_setAlarm": "允许该应用在已安装的闹钟应用中设置闹钟。有些闹钟应用可能无法实现此功能。",
        "permdesc_setInputCalibration": "允许该应用修改触摸屏的校准参数。普通应用绝不需要此权限。",
        "permdesc_setTimeZone": "允许该应用更改手机的时区。",
        "permdesc_setWallpaper": "允许该应用设置系统壁纸。",
        "permdesc_setWallpaperHints": "允许该应用设置有关系统壁纸大小的提示。",
        "permdesc_sim_communication": "允许该应用向 SIM 卡发送命令。此权限具有很高的危险性。",
        "permdesc_statusBar": "允许该应用停用状态栏或者增删系统图标。",
        "permdesc_statusBarService": "允许该应用显示为状态栏。",
        "permdesc_subscribedFeedsRead": "允许该应用获取有关当前同步的订阅的详情。",
        "permdesc_systemAlertWindow": "该应用可显示在其他应用上方或屏幕的其他部分。这可能会妨碍您正常地使用应用，且其他应用的显示方式可能会受到影响。",
        "permdesc_transmitIr": "允许该应用使用手机的红外线发射器。",
        "permdesc_uninstall_shortcut": "允许该应用自行删除主屏幕快捷方式。",
        "permdesc_useBiometric": "允许该应用使用生物特征硬件进行身份验证",
        "permdesc_useDataInBackground": "该应用可在后台使用数据，这样可能会增加流量消耗。",
        "permdesc_useFingerprint": "允许该应用使用指纹硬件进行身份验证",
        "permdesc_use_sip": "允许该应用拨打和接听 SIP 电话。",
        "permdesc_vibrate": "允许该应用控制振动器。",
        "permdesc_wakeLock": "允许该应用阻止手机进入休眠状态。",
        "permdesc_writeCalendar": "该应用可在手机上添加、移除或更改日历活动。该应用可能会以日历所有者的身份发送消息，或在不通知所有者的情况下更改活动。",
        "permdesc_writeCallLog": "允许该应用修改手机的通话记录，包括有关来电和外拨电话的数据。恶意应用可能会借此清除或修改您的通话记录。",
        "permdesc_writeContacts": "允许该应用修改您手机上存储的联系人的相关数据，包括您通话、发送电子邮件或以其他方式与特定联系人通信的频率。此权限可让应用删除联系人数据。",
        "permdesc_writeGeolocationPermissions": "允许该应用修改浏览器的地理位置权限。恶意应用可能借此向任意网站发送位置信息。",
        "permdesc_writeHistoryBookmarks": "允许该应用修改您手机上存储的浏览器历史记录或浏览器书签。此权限可让该应用清除或修改浏览器数据。请注意：此权限可能不适用于第三方浏览器或具备网页浏览功能的其他应用。",
        "permdesc_writeSettings": "允许该应用修改系统的设置数据。恶意应用可能会破坏您的系统配置。",
        "permdesc_writeSyncSettings": "允许该应用修改某个帐号的同步设置。例如，此权限可用于在“联系人”应用与某个帐号之间启用同步。",
        "permgroupdesc_calendar": "访问您的日历",
        "permgroupdesc_calllog": "读取和写入手机通话记录",
        "permgroupdesc_camera": "拍摄照片和录制视频",
        "permgroupdesc_contacts": "访问您的通讯录",
        "permgroupdesc_location": "获取此设备的位置信息",
        "permgroupdesc_microphone": "录制音频",
        "permgroupdesc_phone": "拨打电话和管理通话",
        "permgroupdesc_sensors": "访问与您的生命体征相关的传感器数据",
        "permgroupdesc_sms": "发送和查看短信",
        "permgroupdesc_storage": "访问您设备上的照片、媒体内容和文件",
        "permgrouplab_calendar": "日历",
        "permgrouplab_calllog": "通话记录",
        "permgrouplab_camera": "相机",
        "permgrouplab_contacts": "通讯录",
        "permgrouplab_location": "位置信息",
        "permgrouplab_microphone": "麦克风",
        "permgrouplab_phone": "电话",
        "permgrouplab_sensors": "身体传感器",
        "permgrouplab_sms": "短信",
        "permgrouplab_storage": "存储空间",
        "permgrouprequest_calendar": "允许<b>",
        "permgrouprequest_calllog": "允许<b>",
        "permgrouprequest_camera": "允许<b>",
        "permgrouprequest_contacts": "允许<b>",
        "permgrouprequest_location": "允许<b>",
        "permgrouprequest_microphone": "允许<b>",
        "permgrouprequest_phone": "允许<b>",
        "permgrouprequest_sensors": "允许<b>",
        "permgrouprequest_sms": "允许<b>",
        "permgrouprequest_storage": "允许<b>",
        "permlab_acceptHandover": "继续进行来自其他应用的通话",
        "permlab_accessCoarseLocation": "访问大致位置信息（以网络为依据）",
        "permlab_accessDrmCertificates": "访问 DRM 证书",
        "permlab_accessFineLocation": "访问确切位置信息（以 GPS 和网络为依据）",
        "permlab_accessImsCallService": "使用即时通讯通话服务",
        "permlab_accessLocationExtraCommands": "获取额外的位置信息提供程序命令",
        "permlab_accessNetworkConditions": "监听网络状况的观测信息",
        "permlab_accessNetworkState": "查看网络连接",
        "permlab_accessNotifications": "访问通知",
        "permlab_accessWifiState": "查看 Wi-Fi 连接",
        "permlab_accessWimaxState": "建立或中断 WiMAX 网络连接",
        "permlab_access_notification_policy": "“勿扰”模式使用权限",
        "permlab_addVoicemail": "添加语音邮件",
        "permlab_answerPhoneCalls": "接听来电",
        "permlab_bindCarrierMessagingService": "绑定到运营商消息传递服务",
        "permlab_bindCarrierServices": "绑定到运营商服务",
        "permlab_bindConditionProviderService": "绑定到条件提供程序服务",
        "permlab_bindDreamService": "绑定到互动屏保服务",
        "permlab_bindNotificationListenerService": "绑定到通知侦听器服务",
        "permlab_bind_connection_service": "与电话服务交互",
        "permlab_bind_incall_service": "与通话屏幕互动",
        "permlab_bluetooth": "与蓝牙设备配对",
        "permlab_bluetoothAdmin": "访问蓝牙设置",
        "permlab_bodySensors": "访问身体传感器（如心率监测器）",
        "permlab_broadcastSticky": "发送持久广播",
        "permlab_callPhone": "拨打电话",
        "permlab_camera": "拍摄照片和视频",
        "permlab_changeNetworkState": "更改网络连接性",
        "permlab_changeTetherState": "更改网络共享连接",
        "permlab_changeWifiMulticastState": "允许接收 Wi-Fi 多播",
        "permlab_changeWifiState": "连接 Wi-Fi 网络和断开连接",
        "permlab_changeWimaxState": "更改 WiMAX 状态",
        "permlab_connection_manager": "管理电信网络连接",
        "permlab_control_incall_experience": "向用户提供通话体验",
        "permlab_createNetworkSockets": "拥有完全的网络访问权限",
        "permlab_disableKeyguard": "停用屏幕锁定",
        "permlab_enableCarMode": "启用车载模式",
        "permlab_expandStatusBar": "展开/收起状态栏",
        "permlab_foregroundService": "运行前台服务",
        "permlab_getAccounts": "查找设备上的帐号",
        "permlab_getPackageSize": "计算应用存储空间",
        "permlab_getTasks": "检索正在运行的应用",
        "permlab_handoverStatus": "接收 Android Beam 的传输状态",
        "permlab_install_shortcut": "安装快捷方式",
        "permlab_invokeCarrierSetup": "调用运营商提供的配置应用",
        "permlab_killBackgroundProcesses": "关闭其他应用",
        "permlab_manageFingerprint": "管理指纹硬件",
        "permlab_manageNetworkPolicy": "管理网络政策",
        "permlab_manageOwnCalls": "通过系统转接来电",
        "permlab_manageProfileAndDeviceOwners": "管理个人资料和设备所有者",
        "permlab_modifyAudioSettings": "更改您的音频设置",
        "permlab_modifyNetworkAccounting": "修改网络使用情况记录方式",
        "permlab_nfc": "控制近距离通信",
        "permlab_persistentActivity": "保持应用始终运行",
        "permlab_processOutgoingCalls": "重新设置外拨电话的路径",
        "permlab_readCalendar": "读取日历活动和详情",
        "permlab_readCallLog": "读取通话记录",
        "permlab_readCellBroadcasts": "读取小区广播消息",
        "permlab_readContacts": "读取联系人",
        "permlab_readHistoryBookmarks": "读取您的网络书签和历史记录",
        "permlab_readInstallSessions": "读取安装会话",
        "permlab_readNetworkUsageHistory": "读取网络使用情况历史记录",
        "permlab_readPhoneNumbers": "读取电话号码",
        "permlab_readPhoneState": "读取手机状态和身份",
        "permlab_readSms": "读取短信",
        "permlab_readSyncSettings": "读取同步设置",
        "permlab_readSyncStats": "读取同步统计信息",
        "permlab_receiveBootCompleted": "开机启动",
        "permlab_receiveMms": "接收文本消息（彩信）",
        "permlab_receiveSms": "接收文本消息（短信）",
        "permlab_receiveWapPush": "接收文本消息 (WAP)",
        "permlab_recordAudio": "录音",
        "permlab_register_call_provider": "注册新的电信网络连接",
        "permlab_register_sim_subscription": "注册新的电信 SIM 卡连接",
        "permlab_removeDrmCertificates": "移除 DRM 证书",
        "permlab_reorderTasks": "对正在运行的应用重新排序",
        "permlab_requestDeletePackages": "请求删除文件包",
        "permlab_requestIgnoreBatteryOptimizations": "请求忽略电池优化",
        "permlab_requestInstallPackages": "请求安装文件包",
        "permlab_route_media_output": "更改媒体输出线路",
        "permlab_runInBackground": "在后台运行",
        "permlab_sdcardRead": "读取您的 SD 卡中的内容",
        "permlab_sdcardWrite": "修改或删除您的 SD 卡中的内容",
        "permlab_sendSms": "发送短信",
        "permlab_setAlarm": "设置闹钟",
        "permlab_setInputCalibration": "更改输入设备校准设置",
        "permlab_setTimeZone": "设置时区",
        "permlab_setWallpaper": "设置壁纸",
        "permlab_setWallpaperHints": "调整您的壁纸大小",
        "permlab_sim_communication": "向 SIM 卡发送命令",
        "permlab_statusBar": "停用或修改状态栏",
        "permlab_statusBarService": "用作状态栏",
        "permlab_subscribedFeedsRead": "读取订阅的供稿",
        "permlab_systemAlertWindow": "此应用可显示在其他应用上方",
        "permlab_transmitIr": "发射红外线",
        "permlab_uninstall_shortcut": "卸载快捷方式",
        "permlab_useBiometric": "使用生物特征硬件",
        "permlab_useDataInBackground": "在后台使用数据",
        "permlab_useFingerprint": "使用指纹硬件",
        "permlab_use_sip": "拨打/接听 SIP 电话",
        "permlab_vibrate": "控制振动",
        "permlab_wakeLock": "防止手机休眠",
        "permlab_writeCalendar": "添加或修改日历活动，并在所有者不知情的情况下向邀请对象发送电子邮件",
        "permlab_writeCallLog": "新建/修改/删除通话记录",
        "permlab_writeContacts": "修改您的通讯录",
        "permlab_writeGeolocationPermissions": "修改浏览器地理位置的权限",
        "permlab_writeHistoryBookmarks": "写入网络书签和历史记录",
        "permlab_writeSettings": "修改系统设置",
        "permlab_writeSyncSettings": "启用和停用同步"
    },
    "sidebars": {
        "donate": {
            "bank_transfer_name": "名称",
            "bitcoin_alt": "使用 Bitcoin 捐赠",
            "flattr_alt": "使用 Flattr 捐赠",
            "heading": "捐赠",
            "hellotux": "👕 T 恤衫 👕 来自",
            "hellotux_alt": "HELLOTUX",
            "hellotux_donation": "每卖出一件衬衫 F-Droid 将收到 3 欧元。",
            "liberapay_alt": "使用 Liberapay 捐赠",
            "litecoin_alt": "使用 Litecoin 捐赠",
            "paypal_alt": "使用 PayPal 捐赠",
            "powered_by_donations": "您的捐赠将是 F-Droid 运行的驱动力！",
            "via_bank_transfer": "使用银行转账"
        },
        "lang": {
            "change": "更改"
        },
        "last_updated": {
            "heading": "最近更新"
        },
        "latest_packages": {
            "heading": "最新应用"
        },
        "news": {
            "heading": "新闻"
        },
        "search": {
            "heading": "查找应用",
            "noscript": "需启用 JavaScript",
            "search": "搜索"
        }
    }
}
